Text
…
---

# Stop words

.box-inv-5[Common words that we can generally ignore]

.center.small-code[

```
# A tibble: 1,149 x 2
   word        lexicon
   <chr>       <chr>  
 1 a           SMART  
 2 a's         SMART  
 3 able        SMART  
 4 about       SMART  
 5 above       SMART  
 6 according   SMART  
 7 accordingly SMART  
 8 across      SMART  
 9 actually    SMART  
10 after       SMART  
# … with 1,139 more rows
```
…
---

# Token frequency: n-gram ratios

<img src="13-slides_files/figure-html/hp-se-she-1.png" width="100%" style="display: block; margin: auto;" />

---

# Parts of speech

.small-code[

```
# A tibble: 50 x 11
   doc_id   sid   tid token  token_with_ws lemma upos  xpos  feats     tid_source relation
    <dbl> <dbl> <dbl> <chr>  <chr>         <chr> <chr> <chr> <chr>          <dbl> <chr>   
 1      1     1     1 THE    THE           the   DET   DT    Definite…          2 det     
 2      1     1     2 BOY    BOY           Boy   NOUN  NN    Number=S…         18 nsubj   
 3      1     1     3 WHO    WHO           who   PRON  WP    PronType…          4 nsubj   
 4      1     1     4 LIVED  LIVED　　     live  VERB  VBD   Mood=Ind…          2 acl:rel…
 5      1     1     5 Mr.    Mr.           Mr.   PROPN NNP   Number=S…          4 xcomp   
 6      1     1     6 and    and           and   CCONJ CC    <NA>               7 cc      
 7      1     1     7 Mrs.   Mrs.          Mrs.  PROPN NNP   Number=S…          5 conj    
 8      1     1     8 Dursl… Dursley       Durs… PROPN NNP   Number=S…          7 flat    
 9      1     1     9 ,      ,             ,     PUNCT ,     <NA>               5 punct   
10      1     1    10 of     of            of    ADP   IN    <NA>              11 case    
# … with 40 more rows
```
]

.box-inv-5.small[These use the [Penn part of speech tags](https://cs.nyu.edu/grishman/jet/guide/PennPOS.html)]

---

# Parts of speech frequency

.pull-left-3.small-code[
.box-inv-5.small[Verbs]

```
# A tibble: 1,557 x 2
   lemma     n
   <chr> <dbl>
 1 say     920
 2 get     440
 3 have    417
 4 go      384
 5 look    380
 6 be      310
 7 know    310
 8 see     303
 9 think   230
10 do      227
# … with 1,547 more rows
```
]

--

.pull-middle-3.small-code[
.box-inv-5.small[Nouns]

```
# A tibble: 2,852 x 2
   lemma          n
   <chr>      <dbl>
 1 Harry       1315
 2 Ron          423
 3 Hagrid       258
 4 Professor    167
 5 Snape        154
 6 Hermione     153
 7 Dumbledore   144
 8 time         138
 9 Dudley       136
10 uncle        122
# … with 2,842 more rows
```
]

--

.pull-right-3.small-code[
.box-inv-5.small[Adjectives & adverbs]

```
# A tibble: 1,240 x 2
   lemma     n
   <chr> <dbl>
 1 back    223
 2 so      215
 3 just    180
 4 when    178
 5 very    171
 6 now     166
 7 then    165
 8 all     147
 9 how     136
10 there   123
# … with 1,230 more rows
```
…
[*Between the Words*](https://www.c82.net/work/?id=347) by Nicholas Rougeux

---

# Sentiment analysis

.pull-left-3.small-code[

```r
get_sentiments("bing")
```

```
# A tibble: 6,786 x 2
   word        sentiment
   <chr>       <chr>    
 1 2-faces     negative 
 2 abnormal    negative 
 3 abolish     negative 
 4 abominable  negative 
 5 abominably  negative 
 6 abominate   negative 
 7 abomination negative 
 8 abort       negative 
 9 aborted     negative 
10 aborts      negative 
# … with 6,776 more rows
```
]

--

.pull-middle-3.small-code[

```r
get_sentiments("afinn")
```

```
# A tibble: 2,477 x 2
   word       value
   <chr>      <dbl>
 1 abandon       -2
 2 abandoned     -2
 3 abandons      -2
 4 abducted      -2
 5 abduction     -2
 6 abductions    -2
 7 abhor         -3
 8 abhorred      -3
 9 abhorrent     -3
10 abhors        -3
# … with 2,467 more rows
```
]

--

.pull-right-3.small-code[

```r
get_sentiments("nrc")
```

```
# A tibble: 13,901 x 2
   word        sentiment
   <chr>       <chr>    
 1 abacus      trust    
 2 abandon     fear     
 3 abandon     negative 
 4 abandon     sadness  
 5 abandoned   anger    
 6 abandoned   fear     
 7 abandoned   negative 
 8 abandoned   sadness  
 9 abandonment anger    
10 abandonment fear     
# … with 13,891 more rows
```
…
