…
puerto_rico_data

## # A tibble: 3 x 4
##   state unemployment population  year
##   <chr>        <dbl>      <dbl> <dbl>
## 1 PR             3.1        150  2018
## 2 PR             3.2        250  2019
## 3 PR             3.3        350  2020

state_regions

## # A tibble: 51 x 2
##    region    state
##    <chr>     <chr>
##  1 West      AK   
##  2 South     AL   
##  3 South     AR   
##  4 West      AZ   
##  5 West      CA   
##  6 West      CO   
##  7 Northeast CT   
##  8 South     DC   
##  9 South     DE   
## 10 South     FL   
## # … with 41 more rows
…
Notice how the row with id = 4 from the second dataset is gone, but the row with id = 3 from the first is still there, with NA for some_other_variable.

I find this much more useful when combining data. I often have a larger dataset with all the main variables I care about, perhaps with every combination of country and year over 20 years and 180 countries. If I find another dataset I want to join, and it has missing data for some of the years or countries, I don’t want the combined data to throw away all the rows from the main big dataset that don’t match! I still want those!

(Look at this for a real life example: I create a dataset I name panel_skeleton that is just all the combinations of countries and years (Afghanistan 1990, Afghanistan 1991, etc.), and then I bring in all sorts of other datasets that match the same countries and years. When there aren’t matches, nothing in the skeleton gets thrown away—R just adds missing values instead.)

Your turn: Create a new dataset named combined_data that uses left_join() to merge national_data_2019 and national_libraries_2019.

{{% learnr url="https://andrewheiss.shinyapps.io/datavizm20_12-joining-5/" id="learnr-12-lesson-joining5" %}}
Left joining is also often surprisingly helpful for recoding lots of variables. Right now in our fake national data, we have a column for state, but it would be nice if we could have a column for region so we could facet or fill or color by region in a plot. Hunting around on the internet, you find this dataset that has a column for state and a column for abbreviations:

state_regions

## # A tibble: 51 x 2
##    region    state
##    <chr>     <chr>
##  1 West      AK   
##  2 South     AL   
##  3 South     AR   
##  4 West      AZ   
##  5 West      CA   
##  6 West      CO   
##  7 Northeast CT   
##  8 South     DC   
##  9 South     DE   
## 10 South     FL   
## # … with 41 more rows
…
It’s good practice to be specific about the columns you want and actually use by, but I will often run left_join() without it and then copy the message that it generates (“by = c("state", "year")”) and paste it into my code.

But what if the column names don’t match? Let’s rename the state column in our state/region table for fun:

state_regions_different <- state_regions %>% 
  rename(ST = state)
state_regions_different

## # A tibble: 51 x 2
##    region    ST   
##    <chr>     <chr>
##  1 West      AK   
##  2 South     AL   
##  3 South     AR   
##  4 West      AZ   
##  5 West      CA   
##  6 West      CO   
##  7 Northeast CT   
##  8 South     DC   
##  9 South     DE   
## 10 South     FL   
## # … with 41 more rows
…
right_join()

Once again, go to this page in a new tab and watch the animation.

right_join() works exactly like left_join(), but in reverse. The second dataset is the base data. Any rows in the second dataset that don’t match in the first will be kept, and any rows from the first that don’t match will get thrown away.

Watch what happens if we right join national_data and state_regions:

national_data %>% 
  right_join(state_regions, by = "state")

## # A tibble: 57 x 6
##    state  year unemployment inflation population region   
##    <chr> <dbl>        <dbl>     <dbl>      <dbl> <chr>    
##  1 AK       NA         NA        NA           NA West     
##  2 AL       NA         NA        NA           NA South    
##  3 AR       NA         NA        NA           NA South    
##  4 AZ       NA         NA        NA           NA West     
##  5 CA       NA         NA        NA           NA West     
##  6 CO     2018          4.7       2.7        200 West     
##  7 CO     2019          4.4       2.6        300 West     
##  8 CO     2020          5.1       2.5        400 West     
##  9 CT       NA         NA        NA           NA Northeast
## 10 DC       NA         NA        NA           NA South    
## # … with 47 more rows
…
